<?xml version="1.0" encoding="UTF-8" standalone="no"?>
<svg
   xmlns:dc="http://purl.org/dc/elements/1.1/"
   xmlns:cc="http://creativecommons.org/ns#"
   xmlns:rdf="http://www.w3.org/1999/02/22-rdf-syntax-ns#"
   xmlns:svg="http://www.w3.org/2000/svg"
   xmlns="http://www.w3.org/2000/svg"
   xmlns:xlink="http://www.w3.org/1999/xlink"
   xmlns:sodipodi="http://sodipodi.sourceforge.net/DTD/sodipodi-0.dtd"
   xmlns:inkscape="http://www.inkscape.org/namespaces/inkscape"
   width="80"
   height="59.99999999999999"
   version="1.1"
   id="svg54"
   sodipodi:docname="recordsList (copy).svg"
   inkscape:version="0.92.3 (2405546, 2018-03-11)">
  <metadata
     id="metadata58">
    <rdf:RDF>
      <cc:Work
         rdf:about="">
        <dc:format>image/svg+xml</dc:format>
        <dc:type
           rdf:resource="http://purl.org/dc/dcmitype/StillImage" />
      </cc:Work>
    </rdf:RDF>
  </metadata>
  <sodipodi:namedview
     pagecolor="#ffffff"
     bordercolor="#666666"
     borderopacity="1"
     objecttolerance="10"
     gridtolerance="10"
     guidetolerance="10"
     inkscape:pageopacity="0"
     inkscape:pageshadow="2"
     inkscape:window-width="1920"
     inkscape:window-height="1052"
     id="namedview56"
     showgrid="false"
     inkscape:zoom="8.8741901"
     inkscape:cx="31.928422"
     inkscape:cy="20.006146"
     inkscape:window-x="0"
     inkscape:window-y="0"
     inkscape:window-maximized="1"
     inkscape:current-layer="svg54" />
  <!-- Created with SVG-edit - http://svg-edit.googlecode.com/ -->
  <defs
     id="defs23">
    <symbol
       viewBox="0 0 44 44"
       id="svg_37">
      <g
         id="svg_36">
        <g
           id="svg_2">
          <path
             d="m32.5,30c2.494,-3.129 4,-7.654 4,-12c0,-10.05 -8.139,-18 -18,-18c-9.862,0 -18,7.95 -18,18c0,10.05 8.138,18 18,18c4.193,0 7.953,-1.534 11,-4l11,12l3,-3l-11,-11zm-14,2c-7.658,0 -14,-6.196 -14,-14c0,-7.804 6.342,-14 14,-14c7.658,0 14,6.196 14,14c0,7.804 -6.342,14 -14,14z"
             id="svg_3" />
        </g>
      </g>
      <g
         id="svg_4" />
      <g
         id="svg_5" />
      <g
         id="svg_10" />
      <g
         id="svg_11" />
      <g
         id="svg_12" />
      <g
         id="svg_13" />
      <g
         id="svg_14" />
      <g
         id="svg_15" />
      <g
         id="svg_16" />
      <g
         id="svg_17" />
      <g
         id="svg_18" />
      <g
         id="svg_19" />
      <g
         id="svg_20" />
      <g
         id="svg_21" />
      <g
         id="svg_22" />
    </symbol>
    <symbol
       id="svg_26"
       viewBox="0 0 60 60">
      <path
         fill="#002061"
         d="m30,30a15,15 0 1 0 -15,-15a15.044,15.044 0 0 0 15,15zm0,7.5c-9.937,0 -30,5.063 -30,15l0,7.5l60,0l0,-7.5c0,-9.937 -20.063,-15 -30,-15z"
         id="svg_1" />
    </symbol>
  </defs>
  <g
     id="svg_6" />
  <g
     id="svg_9" />
  <g
     id="svg_34" />
  <use
     height="100%"
     width="100%"
     style="fill:#002061"
     id="svg_38"
     xlink:href="#svg_37"
     transform="matrix(0.34926962,0,0,0.34926962,8.8791586,-3.8017453)"
     y="64.367386"
     x="134.47945" />
  <g
     id="svg_39" />
  <g
     id="svg_28" />
  <use
     height="100%"
     width="100%"
     id="svg_29"
     xlink:href="#svg_26"
     transform="matrix(0.99308016,0,0,0.99308016,1.1641932,-0.93802166)"
     y="1.246744"
     x="-11.050562" />
  <g
     id="svg_30" />
  <g
     id="svg_33" />
  <g
     id="svg_64"
     transform="scale(0.01524158)" />
  <g
     id="svg_65"
     transform="scale(0.01524158)" />
  <g
     id="svg_66"
     transform="scale(0.01524158)" />
  <g
     id="svg_67"
     transform="scale(0.01524158)" />
  <g
     id="svg_68"
     transform="scale(0.01524158)" />
  <g
     id="svg_69"
     transform="scale(0.01524158)" />
  <g
     id="svg_70"
     transform="scale(0.01524158)" />
  <g
     id="svg_71"
     transform="scale(0.01524158)" />
  <g
     id="svg_72"
     transform="scale(0.01524158)" />
  <g
     id="svg_73"
     transform="scale(0.01524158)" />
  <g
     id="svg_74"
     transform="scale(0.01524158)" />
  <g
     id="svg_75"
     transform="scale(0.01524158)" />
  <g
     id="svg_76"
     transform="scale(0.01524158)" />
  <g
     id="svg_77"
     transform="scale(0.01524158)" />
  <g
     id="svg_78"
     transform="scale(0.01524158)" />
</svg>
